{
  "invalid_grant": {
    "message": "Incorrect Login",
    "description": ""
  },
   "no_public_key_found": {
    "message": "No public key found!",
    "description": ""
  },
   "no_private_key_found": {
    "message": "No private key found!",
    "description": ""
  },
	"no_private_key_found": {
    "message": "No private key found!",
    "description": ""
  },
  	"incorrect_private_key_password": {
    "message": "Password for secrect key was incorrect!",
    "description": ""
  },
 	"do_not_have_acount": {
    "message": "Do not have your account EnigmaGPG? ",
    "description": ""
  },
  	"sign_up": {
    "message": "Sign Up!",
    "description": ""
  },
	"lost_password": {
    "message": "Lost your password? ",
    "description": ""
  },
  	"reset_password": {
    "message": "Reset Password!",
    "description": ""
  },
  	"username": {
    "message": "Username",
    "description": ""
  },
  	"password": {
    "message": "Password",
    "description": ""
  },
  	"cipher_text": {
    "message": "Cipher Text",
    "description": ""
  },
  	"decipher_text": {
    "message": "Decipher Text",
    "description": ""
  },
  	"cipher": {
    "message": "Cipher",
    "description": ""
  },
  	"decipher": {
    "message": "Decipher",
    "description": ""
  },
  	"field_required": {
    "message": "This field is required.",
    "description": ""
  },
  	"incorrect_login": {
    "message": "Incorrect Login",
    "description": ""
  },
  	"unauthorized":{
  	"message": "Unauthorized",
    "description": ""	
  },
  	"search_contacts": {
    "message": "Contacts ...",
    "description": ""
  },
  	"key_password": {
    "message": "Key Password",
    "description": ""
  },
  	"generated_by": {
    "message": "Generated by Enigma GPG - www.enigmagpg.com",
    "description": ""
  },
  	"copyrights": {
    "message": "EnigmaGPG ® 2013 Copyrights - ",
    "description": ""
  },
  	"beta_version": {
    "message": "- BETA VERSION",
    "description": ""
  },
  	"made_in": {
    "message": "Made in MDQ by Talsoft",
    "description": ""
  },
    "report_issue": {
    "message": " - Report an issue",
    "description": ""
  },
    "invite_user": {
    "message": "Invite User",
    "description": ""
  },
    "log_out": {
    "message": "Log out",
    "description": ""
  },
    "enigma_gpg": {
    "message": "EnigmaGPG",
    "description": ""
  }
}